%YAML 1.1
%TAG !u! tag:unity3d.com,2011:
--- !u!1045 &1
EditorBuildSettings:
  m_ObjectHideFlags: 0
  serializedVersion: 2
  m_Scenes:
  - enabled: 1
    path: Assets/Scenes/Main Menu.unity
    guid: e4c29e0c316d9664d99c727fa89aa9ae
  - enabled: 1
    path: Assets/Scenes/Video Selection.unity
    guid: 536ad9ac60c9e4f42a865a08fde620f7
  - enabled: 1
    path: Assets/Scenes/Lion Video.unity
    guid: 9fc0d4010bbf28b4594072e72b8655ab
  - enabled: 1
    path: Assets/Scenes/Credits.unity
    guid: f234b826b2ea82f4697c10ab4dc073d3
  - enabled: 1
    path: Assets/Scenes/London Video.unity
    guid: 8701e6d9315684d4197facc5240ec9d8
  m_configObjects:
    Unity.XR.Oculus.Settings: {fileID: 11400000, guid: f276e422b1dfba14892d4147d3edacf9,
      type: 2}
    com.unity.xr.management.loader_settings: {fileID: 11400000, guid: ec75769bce3b47142994fb3435351ab5,
      type: 2}
    xr.sdk.mock-hmd.settings: {fileID: 11400000, guid: f8f53d9542795a547a7492a83bfa7a70,
      type: 2}
